{
  "version": "tree-0.1",
  "tree": {
    "id": "App",
    "path": "",
    "children": {
      "S3AppStack": {
        "id": "S3AppStack",
        "path": "S3AppStack",
        "children": {
          "SecondBucket": {
            "id": "SecondBucket",
            "path": "S3AppStack/SecondBucket",
            "children": {
              "Resource": {
                "id": "Resource",
                "path": "S3AppStack/SecondBucket/Resource",
                "attributes": {
                  "aws:cdk:cloudformation:type": "AWS::S3::Bucket",
                  "aws:cdk:cloudformation:props": {
                    "bucketEncryption": {
                      "serverSideEncryptionConfiguration": [
                        {
                          "serverSideEncryptionByDefault": {
                            "sseAlgorithm": "AES256"
                          }
                        }
                      ]
                    },
                    "versioningConfiguration": {
                      "status": "Enabled"
                    }
                  }
                },
                "constructInfo": {
                  "fqn": "aws-cdk-lib.aws_s3.CfnBucket",
                  "version": "2.128.0"
                }
              }
            },
            "constructInfo": {
              "fqn": "aws-cdk-lib.aws_s3.Bucket",
              "version": "2.128.0"
            }
          },
          "CDKMetadata": {
            "id": "CDKMetadata",
            "path": "S3AppStack/CDKMetadata",
            "children": {
              "Default": {
                "id": "Default",
                "path": "S3AppStack/CDKMetadata/Default",
                "constructInfo": {
                  "fqn": "aws-cdk-lib.CfnResource",
                  "version": "2.128.0"
                }
              },
              "Condition": {
                "id": "Condition",
                "path": "S3AppStack/CDKMetadata/Condition",
                "constructInfo": {
                  "fqn": "aws-cdk-lib.CfnCondition",
                  "version": "2.128.0"
                }
              }
            },
            "constructInfo": {
              "fqn": "constructs.Construct",
              "version": "10.3.0"
            }
          },
          "BootstrapVersion": {
            "id": "BootstrapVersion",
            "path": "S3AppStack/BootstrapVersion",
            "constructInfo": {
              "fqn": "aws-cdk-lib.CfnParameter",
              "version": "2.128.0"
            }
          },
          "CheckBootstrapVersion": {
            "id": "CheckBootstrapVersion",
            "path": "S3AppStack/CheckBootstrapVersion",
            "constructInfo": {
              "fqn": "aws-cdk-lib.CfnRule",
              "version": "2.128.0"
            }
          }
        },
        "constructInfo": {
          "fqn": "aws-cdk-lib.Stack",
          "version": "2.128.0"
        }
      },
      "Tree": {
        "id": "Tree",
        "path": "Tree",
        "constructInfo": {
          "fqn": "constructs.Construct",
          "version": "10.3.0"
        }
      }
    },
    "constructInfo": {
      "fqn": "aws-cdk-lib.App",
      "version": "2.128.0"
    }
  }
}